Data analysis replication assignment
…
In the published paper, authors mentions about the difference between after and before temperature treatments of different genotype. Here, I conducted descriptive statistical analysis by caculating mean and se (standard error), and using box-plot for visualization.

Descriptive statistical analysis

summary_d1 <- d1 |>
  group_by(Genotype, Temp, Group) |>
  summarise(
    mean = mean(Length),
    se = sd(Length) / sqrt(n()),
    .groups = "drop"
  ) 

print(summary_d1)

# A tibble: 24 × 5
   Genotype      Temp  Group               mean     se
   <fct>         <fct> <fct>              <dbl>  <dbl>
 1 Col-0         21°C  Col-0.21°C          3.72 0.0455
 2 Col-0         27°C  Col-0.27°C          7.77 0.122 
 3 ein2-5        21°C  ein2-5.21°C         3.55 0.0504
 4 ein2-5        27°C  ein2-5.27°C         6.18 0.0940
 5 ein3-1 eil1-1 21°C  ein3-1 eil1-1.21°C  3.58 0.0652
 6 ein3-1 eil1-1 27°C  ein3-1 eil1-1.27°C  6.20 0.0692
 7 lhp1-3        21°C  lhp1-3.21°C         2.48 0.0303
 8 lhp1-3        27°C  lhp1-3.27°C         4.71 0.0576
 9 ein2-5 lhp1-3 21°C  ein2-5 lhp1-3.21°C  2.58 0.0586
10 ein2-5 lhp1-3 27°C  ein2-5 lhp1-3.27°C  2.91 0.0621
# ℹ 14 more rows
…
